{
  "name": [{
   "last": "Doe",
    "first": "John"
    
  },{
    "last": "Doe",
    "first": "Jane",
	"geburt": "20.11"
  }],
  "phones": [
    {
      "number": "999999999",
      "type": "mobile",
	  "nero": "tester"
    },
	{
      "nummer": "000000000",
      "type": "home"
    }
  ]
}
