{
	
	"content": [{
			"name": {
				"first": "Jane",
				"last": "Doe"
			},
			"address": null,
			"birthday": "1980-01-01",
			"company": "Acme",
			"occupation": "Software engineer",
			"phones": [{
					"number": "000000000",
					"type": "mobile"
				},
				{
					"number": "999999999",
					"type": "home"
				}
			]
		}

	]

}
